{
  "name": "Karma",
  "css_prefix_text": "",
  "css_use_suffix": false,
  "hinting": true,
  "units_per_em": 1000,
  "ascent": 850,
  "glyphs": [
    {
      "uid": "d060601e998fce491c778d05626194ac",
      "css": "vk",
      "code": 61833,
      "src": "fontawesome5"
    },
    {
      "uid": "8de7ed7d4ea2d9d737f88b2fd9efebfe",
      "css": "github_alt",
      "code": 61715,
      "src": "fontawesome5"
    },
    {
      "uid": "de0b4c8527be9d491c6b5a201b4b7130",
      "css": "linkedin_in",
      "code": 61665,
      "src": "fontawesome5"
    },
    {
      "uid": "71064f0fa3be043351efdcaea9c5b8ea",
      "css": "instagram",
      "code": 61805,
      "src": "fontawesome5"
    },
    {
      "uid": "a25f8833bf2823cf069ac31eeda378d7",
      "css": "steam",
      "code": 61878,
      "src": "fontawesome5"
    },
    {
      "uid": "3d2ba268e0ff8128fe71d48c4631a6b9",
      "css": "telegram_plane",
      "code": 62462,
      "src": "fontawesome5"
    }
  ]
}